1 10 20
100 200 125
201 210 89
900 1000 174
1 2 2
100 101 26
42 42 9
2 16 20
3 17 20
2000 1000 182
999998 999999 259
999999 999999 259
500000 600000 470
600000 700000 509
700000 800000 504
900000 999999 507
517484 351146 470
217979 116752 386
947518 369138 525
630034 240848 509
269802 869724 525
999292 535744 525
670379 44947 509
220700 450755 449
679728 228439 509
224839 75035 386
697416 774425 504
574352 3792 470
620156 11104 470
239469 228953 443
598638 18464 470
743884 389777 509
733559 999799 525
562097 806658 509
448888 938551 525
441904 959241 525
939755 528428 525
318115 281294 389
921862 468853 525
847806 387899 525
786255 602027 509
523304 188227 470
781733 248529 509
557530 933221 525
22365 366873 443
873914 293155 525
82386 777345 509
111247 309369 443
582741 685982 509
921500 727216 525
173824 208150 373
593390 373739 470
793302 795227 375
680636 831505 504
170504 63022 383
375403 489762 449
13746 923510 525
35326 150097 375
834366 645272 504
814372 270599 509
931094 206444 525
532016 540920 408
782139 33587 509
739444 474115 509
918350 899924 476
374747 661752 509
126881 356115 443
382035 770522 509
811600 624466 509
210918 591797 470
764440 27241 509
795229 226040 509
379611 983964 525
315501 756085 509
835454 596078 509
23839 78005 351
605896 887231 525
533542 41902 470
81950 20897 351
3605 389499 443
402173 362759 436
931894 299073 525
901541 650925 525
43925 839006 525
193836 498553 449
647655 443489 509
915866 798381 525
649313 615733 509
698549 398462 509
624469 128219 470
472834 931084 525
942536 366443 525
855436 671412 525
472427 106328 449
254166 583859 470
727737 979020 525
873838 172581 525
301079 417627 449
926435 855177 476
757845 309358 509
536719 282134 470
225081 82507 386
987329 32283 525
379673 941873 525
688136 673511 398
521434 561397 452
925430 856109 476
963626 979148 458
173202 442173 449
799096 182815 509
947282 163631 525
275024 622980 470
212704 957757 525
833460 593896 509
565074 223024 470
949082 258260 525
917755 452415 525
993827 261605 525
505334 143456 449
719748 386304 509
158258 607732 470
276948 170533 443
243975 848221 525
810157 230170 509
557784 198057 470
470639 380552 449
818188 682814 504
528919 984136 525
640377 578930 509
537866 906579 525
762536 72029 509
863267 434333 525
566552 204191 470
275563 799874 509
498039 922158 525
140876 349195 443
986586 949593 458
885446 149749 525
695964 889905 525
854270 378327 525
828814 710109 468
556098 89903 470
676784 681537 380
550321 781349 509
831911 248214 509
68530 228011 386
186159 775644 509
597655 383150 470
157293 600285 470
591670 417778 470
777445 977378 525
931561 671979 525
68549 981449 525
365392 22759 443
502204 154690 449
3193 661800 509
387170 780522 509
644867 372304 509
291579 660430 509
667868 774184 504
948800 130698 525
501748 679020 509
537466 965397 525
933441 127991 525
372254 838869 525
56938 647481 509
193097 692229 509
585848 132791 470
247037 435715 449
219792 403091 443
697039 891555 525
502067 426721 444
707969 87102 509
664659 334647 509
155785 551962 470
145614 187329 383
776256 682744 504
914321 875017 476
645223 762628 504
529099 89049 470
75542 766535 509
719857 510599 509
720197 137335 509
743329 251115 509
430269 810358 509
187907 459160 449
885258 660065 525
4526 559359 470
387701 246402 441
834716 979197 525
366327 388003 423
135756 473695 449
69398 321003 443
97574 716206 509
267062 436617 449
213417 891268 525
378144 733686 509
842523 844283 388
394571 777475 509
891406 536157 525
19262 970371 525
496836 107398 449
791281 792285 331
247996 920416 525
834648 641461 504
623617 467130 470
755316 883885 525
128256 828635 509
896516 471987 525
891128 544725 525
764907 733453 424
677594 83668 509
552265 2656 470
766045 452911 509
813260 493294 509
871251 258367 525
